<Qucs Schematic 0.0.18>
<Properties>
  <View=-80,0,1072,800,1,159,60>
  <Grid=10,10,1>
  <DataSet=miniPumpWater.dat>
  <DataDisplay=miniPumpWater.dpl>
  <OpenDisplay=1>
  <Script=miniPumpWater.m>
  <RunScript=0>
  <showFrame=0>
  <FrameText0=Title>
  <FrameText1=Drawn By:>
  <FrameText2=Date:>
  <FrameText3=Revision:>
</Properties>
<Symbol>
  <.ID -20 -16 SUB>
  <Line -20 20 40 0 #000080 2 1>
  <Line 20 20 0 -40 #000080 2 1>
  <Line -20 -20 40 0 #000080 2 1>
  <Line -20 20 0 -40 #000080 2 1>
</Symbol>
<Components>
  <GND * 1 980 230 0 0 0 0>
  <R R2 1 780 180 15 -26 0 1 "7.5 Ohm" 1 "26.85" 0 "0.0" 0 "0.0" 0 "26.85" 0 "US" 0>
  <Vdc V1 1 980 180 18 -26 0 1 "8 V" 1>
  <IProbe Pr1 1 880 130 -26 16 0 0>
  <_BJT TIP41C_1 1 780 280 8 -26 0 0 "npn" 1 "7.55826e-11" 1 "1.11221" 1 "1.5" 0 "0.526814" 0 "3.54059" 0 "100" 1 "1000" 0 "1e-8" 0 "2.18072" 0 "1e-8" 0 "1.63849" 0 "50" 1 "26.0542" 0 "0.1" 0 "0.1" 0 "0.0810556" 0 "0.0162111" 0 "4.56157" 0 "1.93296e-10" 0 "0.4" 0 "0.259503" 0 "1.09657e-10" 0 "0.730921" 0 "0.23" 0 "0.803085" 0 "0" 0 "0.75" 0 "0.5" 0 "0.8" 0 "1e-8" 0 "4.06972" 0 "7.1157" 0 "0.001" 0 "9.01013e-8" 0 "26.85" 0 "0.0" 0 "1.0" 0 "1.0" 0 "0.0" 0 "1.0" 0 "1.0" 0 "0.0" 0 "0.0" 0 "3.0" 0 "1.11" 0 "26.85" 0 "1.0" 0>
  <GND * 1 780 330 0 0 0 0>
  <_BJT T_2N2222_1 1 490 360 12 -32 0 0 "npn" 0 "1e-14" 0 "1" 0 "1" 0 "0.3" 0 "0" 0 "100" 0 "0" 0 "0" 0 "1.5" 0 "0" 0 "2" 0 "200" 0 "3" 0 "0" 0 "0" 0 "3" 0 "1" 0 "10" 0 "25e-12" 0 "0.75" 0 "0.33" 0 "8e-12" 0 "0.75" 0 "0.33" 0 "1.0" 0 "0" 0 "0.75" 0 "0" 0 "0.5" 0 "400e-12" 0 "3" 0 "0.0" 0 "2" 0 "100e-9" 0 "26.85" 0 "0.0" 0 "1.0" 0 "1.0" 0 "0.0" 0 "1.0" 0 "1.0" 0 "0.0" 0 "0.0" 0 "3.0" 0 "1.11" 0 "26.85" 0 "1.0" 0>
  <GND * 1 310 450 0 0 0 0>
  <GND * 1 490 470 0 0 0 0>
  <IProbe Pr2 1 490 300 16 -26 0 1>
  <R R5 1 310 310 15 -26 0 1 "80 KOhm" 1 "26.85" 0 "0.0" 0 "0.0" 0 "26.85" 0 "US" 0>
  <R R7 1 410 360 -26 15 0 0 "50 Ohm" 1 "26.85" 0 "0.0" 0 "0.0" 0 "26.85" 0 "US" 0>
  <.DC DC1 1 100 120 0 43 0 0 "26.85" 0 "0.001" 0 "1 pA" 0 "1 uV" 0 "no" 0 "150" 0 "no" 0 "none" 0 "CroutLU" 0>
  <R R6 1 310 420 15 -26 0 1 "80 KOhm" 1 "26.85" 0 "0.0" 0 "0.0" 0 "26.85" 0 "US" 0>
  <GND * 1 650 340 0 0 0 0>
  <R R8 1 720 280 -26 15 0 0 "50 Ohm" 1 "26.85" 0 "0.0" 0 "0.0" 0 "26.85" 0 "US" 0>
  <Idc I1 1 650 310 18 -26 0 1 "16 mA" 1>
</Components>
<Wires>
  <780 130 780 150 "" 0 0 0 "">
  <780 130 850 130 "" 0 0 0 "">
  <980 130 980 150 "" 0 0 0 "">
  <980 210 980 230 "" 0 0 0 "">
  <910 130 980 130 "" 0 0 0 "">
  <780 210 780 250 "" 0 0 0 "">
  <780 310 780 330 "" 0 0 0 "">
  <490 260 490 270 "" 0 0 0 "">
  <310 360 380 360 "" 0 0 0 "">
  <310 340 310 360 "" 0 0 0 "">
  <310 360 310 390 "" 0 0 0 "">
  <490 390 490 470 "" 0 0 0 "">
  <440 360 460 360 "" 0 0 0 "">
  <650 280 690 280 "" 0 0 0 "">
  <780 210 780 210 "vc" 810 210 0 "">
  <980 130 980 130 "va" 1010 100 0 "">
  <310 280 310 280 "va" 340 250 0 "">
  <310 360 310 360 "vbe1" 340 330 0 "">
</Wires>
<Diagrams>
  <Tab -40 520 300 200 3 #c0c0c0 1 00 1 0 1 1 1 0 1 1 1 0 1 1 315 0 225 "" "" "">
	<"Pr2.I" #0000ff 0 3 1 0 0>
	<"vc.V" #0000ff 0 3 1 0 0>
	<"vbe1.V" #0000ff 0 3 1 0 0>
  </Tab>
</Diagrams>
<Paintings>
</Paintings>
